^C:\USERS\ELENA\DOCUMENTS\PERSONAL\LOCAL-REPOSITORIES\BUBBLE-SORT\BUBBLESORT\BUBBLESORT\DRAW.CPP|C:\USERS\ELENA\DOCUMENTS\PERSONAL\LOCAL-REPOSITORIES\BUBBLE-SORT\BUBBLESORT\BUBBLESORT\SORT.CPP
C:\USERS\ELENA\DOCUMENTS\PERSONAL\LOCAL-REPOSITORIES\BUBBLE-SORT\BUBBLESORT\BUBBLESORT\DEBUG\VC142.PDB
C:\USERS\ELENA\DOCUMENTS\PERSONAL\LOCAL-REPOSITORIES\BUBBLE-SORT\BUBBLESORT\BUBBLESORT\DEBUG\VC142.IDB
C:\USERS\ELENA\DOCUMENTS\PERSONAL\LOCAL-REPOSITORIES\BUBBLE-SORT\BUBBLESORT\BUBBLESORT\DEBUG\SORT.OBJ
C:\USERS\ELENA\DOCUMENTS\PERSONAL\LOCAL-REPOSITORIES\BUBBLE-SORT\BUBBLESORT\BUBBLESORT\DEBUG\DRAW.OBJ
^C:\USERS\ELENA\DOCUMENTS\PERSONAL\LOCAL-REPOSITORIES\BUBBLE-SORT\BUBBLESORT\BUBBLESORT\DRAW.CPP|C:\USERS\ELENA\DOCUMENTS\PERSONAL\LOCAL-REPOSITORIES\BUBBLE-SORT\BUBBLESORT\BUBBLESORT\MAIN.CPP
C:\USERS\ELENA\DOCUMENTS\PERSONAL\LOCAL-REPOSITORIES\BUBBLE-SORT\BUBBLESORT\BUBBLESORT\DEBUG\VC142.PDB
C:\USERS\ELENA\DOCUMENTS\PERSONAL\LOCAL-REPOSITORIES\BUBBLE-SORT\BUBBLESORT\BUBBLESORT\DEBUG\VC142.IDB
C:\USERS\ELENA\DOCUMENTS\PERSONAL\LOCAL-REPOSITORIES\BUBBLE-SORT\BUBBLESORT\BUBBLESORT\DEBUG\MAIN.OBJ
C:\USERS\ELENA\DOCUMENTS\PERSONAL\LOCAL-REPOSITORIES\BUBBLE-SORT\BUBBLESORT\BUBBLESORT\DEBUG\DRAW.OBJ
^C:\USERS\ELENA\DOCUMENTS\PERSONAL\LOCAL-REPOSITORIES\BUBBLE-SORT\BUBBLESORT\BUBBLESORT\DRAW.CPP|C:\USERS\ELENA\DOCUMENTS\PERSONAL\LOCAL-REPOSITORIES\BUBBLE-SORT\BUBBLESORT\BUBBLESORT\MAIN.CPP|C:\USERS\ELENA\DOCUMENTS\PERSONAL\LOCAL-REPOSITORIES\BUBBLE-SORT\BUBBLESORT\BUBBLESORT\SORT.CPP
C:\USERS\ELENA\DOCUMENTS\PERSONAL\LOCAL-REPOSITORIES\BUBBLE-SORT\BUBBLESORT\BUBBLESORT\DEBUG\VC142.PDB
C:\USERS\ELENA\DOCUMENTS\PERSONAL\LOCAL-REPOSITORIES\BUBBLE-SORT\BUBBLESORT\BUBBLESORT\DEBUG\VC142.IDB
C:\USERS\ELENA\DOCUMENTS\PERSONAL\LOCAL-REPOSITORIES\BUBBLE-SORT\BUBBLESORT\BUBBLESORT\DEBUG\SORT.OBJ
C:\USERS\ELENA\DOCUMENTS\PERSONAL\LOCAL-REPOSITORIES\BUBBLE-SORT\BUBBLESORT\BUBBLESORT\DEBUG\MAIN.OBJ
C:\USERS\ELENA\DOCUMENTS\PERSONAL\LOCAL-REPOSITORIES\BUBBLE-SORT\BUBBLESORT\BUBBLESORT\DEBUG\DRAW.OBJ
^C:\USERS\ELENA\DOCUMENTS\PERSONAL\LOCAL-REPOSITORIES\BUBBLE-SORT\BUBBLESORT\BUBBLESORT\DRAW.CPP
C:\USERS\ELENA\DOCUMENTS\PERSONAL\LOCAL-REPOSITORIES\BUBBLE-SORT\BUBBLESORT\BUBBLESORT\DEBUG\VC142.PDB
^C:\USERS\ELENA\DOCUMENTS\PERSONAL\LOCAL-REPOSITORIES\BUBBLE-SORT\BUBBLESORT\BUBBLESORT\MAIN.CPP
C:\USERS\ELENA\DOCUMENTS\PERSONAL\LOCAL-REPOSITORIES\BUBBLE-SORT\BUBBLESORT\BUBBLESORT\DEBUG\VC142.PDB
^C:\USERS\ELENA\DOCUMENTS\PERSONAL\LOCAL-REPOSITORIES\BUBBLE-SORT\BUBBLESORT\BUBBLESORT\SORT.CPP
C:\USERS\ELENA\DOCUMENTS\PERSONAL\LOCAL-REPOSITORIES\BUBBLE-SORT\BUBBLESORT\BUBBLESORT\DEBUG\VC142.PDB
