^C:\USERS\ELENA\DOCUMENTS\PERSONAL\LOCAL-REPOSITORIES\BUBBLE-SORT\BUBBLESORT\BUBBLESORT\DEBUG\DRAW.OBJ|C:\USERS\ELENA\DOCUMENTS\PERSONAL\LOCAL-REPOSITORIES\BUBBLE-SORT\BUBBLESORT\BUBBLESORT\DEBUG\MAIN.OBJ|C:\USERS\ELENA\DOCUMENTS\PERSONAL\LOCAL-REPOSITORIES\BUBBLE-SORT\BUBBLESORT\BUBBLESORT\DEBUG\SORT.OBJ
/OUT:"C:\USERS\ELENA\DOCUMENTS\PERSONAL\LOCAL-REPOSITORIES\BUBBLE-SORT\BUBBLESORT\DEBUG\BUBBLESORT.EXE" /INCREMENTAL /NOLOGO /LIBPATH:"C:\USERS\ELENA\DOCUMENTS\PERSONAL\LOCAL-REPOSITORIES\BUBBLE-SORT\BUBBLESORT\\BUBBLESORT\LIB" "SFML-AUDIO-D.LIB" "SFML-GRAPHICS-D.LIB" "SFML-NETWORK-D.LIB" "SFML-SYSTEM-D.LIB" "SFML-WINDOW-D.LIB" KERNEL32.LIB USER32.LIB GDI32.LIB WINSPOOL.LIB COMDLG32.LIB ADVAPI32.LIB SHELL32.LIB OLE32.LIB OLEAUT32.LIB UUID.LIB ODBC32.LIB ODBCCP32.LIB /MANIFEST /MANIFESTUAC:"level='asInvoker' uiAccess='false'" /manifest:embed /DEBUG:FASTLINK /PDB:"C:\USERS\ELENA\DOCUMENTS\PERSONAL\LOCAL-REPOSITORIES\BUBBLE-SORT\BUBBLESORT\DEBUG\BUBBLESORT.PDB" /SUBSYSTEM:CONSOLE /TLBID:1 /DYNAMICBASE /NXCOMPAT /IMPLIB:"C:\USERS\ELENA\DOCUMENTS\PERSONAL\LOCAL-REPOSITORIES\BUBBLE-SORT\BUBBLESORT\DEBUG\BUBBLESORT.LIB" /MACHINE:X86 DEBUG\DRAW.OBJ
DEBUG\MAIN.OBJ
DEBUG\SORT.OBJ
